R skills assessment - GPID DECDG WB
…
    intersect, setdiff, setequal, union

summary_gdp <- wdi %>% 
  filter(!is.na(gdp)) %>% 
  group_by(region, date) %>%  
  reframe(
  N = n(),
  Mean = weighted.mean(gdp, pop, na.rm = TRUE),
  SD = sqrt(sum(pop*(gdp - weighted.mean(gdp, pop, na.rm = TRUE))^2)/sum(pop)),
  Min = min(gdp, na.rm = TRUE),
  Max = max(gdp, na.rm = TRUE))

print(summary_gdp)

# A tibble: 218 × 7
   region               date     N  Mean    SD   Min    Max
   <chr>               <dbl> <int> <dbl> <dbl> <dbl>  <dbl>
 1 East Asia & Pacific  1990    22 4913. 8497.  582. 32846.
 2 East Asia & Pacific  1991    22 5105. 8691.  579. 33870.
 3 East Asia & Pacific  1992    22 5291. 8667.  597. 34049.
 4 East Asia & Pacific  1993    22 5483. 8576.  635. 33783.
 5 East Asia & Pacific  1994    22 5740. 8619.  669. 34054.
 6 East Asia & Pacific  1995    22 6037. 8796.  709. 34868.
 7 East Asia & Pacific  1996    22 6340. 9011.  746. 35879.
 8 East Asia & Pacific  1997    22 6538. 9045.  782. 36145.
 9 East Asia & Pacific  1998    22 6449. 8823.  817. 36099.
10 East Asia & Pacific  1999    22 6635. 8836.  875. 37476.
# ℹ 208 more rows
…
  pop_median = sum(pop, na.rm = TRUE),
  lifeex_median = median(lifeex, na.rm = TRUE),
  gdp_median = median(gdp, na.rm = TRUE),
  povintl_median = median(pov_intl, na.rm = TRUE))

agg_stats_long <- agg_stats %>% 
  pivot_longer(
    cols = starts_with("pop_") |starts_with("lifeex_") | starts_with("gdp_") | starts_with("povintl_"), 
    names_to = c(".value", "estimate"),
    names_sep = "_")
  
print(agg_stats_long)

# A tibble: 1,090 × 7
   region               date estimate        pop lifeex     gdp povintl
   <chr>               <dbl> <chr>         <dbl>  <dbl>   <dbl>   <dbl>
 1 East Asia & Pacific  1990 mean     1754166013  68.2  4.91e 3 5.90e-1
 2 East Asia & Pacific  1990 sd       1754166013   3.99 4.50e12 5.40e+8
 3 East Asia & Pacific  1990 min      1754166013  53.7  5.82e 2 4.80e-3
 4 East Asia & Pacific  1990 max      1754166013  78.8  3.28e 4 9.52e-1
 5 East Asia & Pacific  1990 median   1754166013  66.3  3.53e 3 1.23e-1
 6 East Asia & Pacific  1991 mean     1779284317  68.4  5.11e 3 5.73e-1
 7 East Asia & Pacific  1991 sd       1779284317   3.96 4.74e12 5.32e+8
 8 East Asia & Pacific  1991 min      1779284317  54.5  5.79e 2 4.80e-3
 9 East Asia & Pacific  1991 max      1779284317  79.0  3.39e 4 9.52e-1
10 East Asia & Pacific  1991 median   1779284317  66.8  3.46e 3 1.15e-1
# ℹ 1,080 more rows
…
